%YAML 1.1
%TAG !u! tag:unity3d.com,2011:
--- !u!74 &7400000
AnimationClip:
  m_ObjectHideFlags: 0
  m_CorrespondingSourceObject: {fileID: 0}
  m_PrefabInstance: {fileID: 0}
  m_PrefabAsset: {fileID: 0}
  m_Name: playerPush
  serializedVersion: 6
  m_Legacy: 0
  m_Compressed: 0
  m_UseHighQualityCurve: 1
  m_RotationCurves: []
  m_CompressedRotationCurves: []
  m_EulerCurves: []
  m_PositionCurves: []
  m_ScaleCurves: []
  m_FloatCurves: []
  m_PPtrCurves:
  - curve:
    - time: 0
      value: {fileID: 595661573533270607, guid: 47531b189749d5d45a50abbcf908f6d0,
        type: 3}
    - time: 0.21666667
      value: {fileID: 3380867843975962835, guid: 47531b189749d5d45a50abbcf908f6d0,
        type: 3}
    - time: 0.41666666
      value: {fileID: 8767817562348655431, guid: 47531b189749d5d45a50abbcf908f6d0,
        type: 3}
    - time: 0.6
      value: {fileID: -7016653239807626574, guid: 47531b189749d5d45a50abbcf908f6d0,
        type: 3}
    - time: 0.8
      value: {fileID: -2836629171940628902, guid: 47531b189749d5d45a50abbcf908f6d0,
        type: 3}
    - time: 1
      value: {fileID: 1645720435441620283, guid: 47531b189749d5d45a50abbcf908f6d0,
        type: 3}
    attribute: m_Sprite
    path: Avatar
    classID: 212
    script: {fileID: 0}
  - curve:
    - time: 0
      value: {fileID: 763835390307107805, guid: 881a74174ecda7142844fcea06e0cdb4,
        type: 3}
    - time: 0.21666667
      value: {fileID: -2034057449013672910, guid: 881a74174ecda7142844fcea06e0cdb4,
        type: 3}
    - time: 0.41666666
      value: {fileID: -9068918288630276153, guid: 881a74174ecda7142844fcea06e0cdb4,
        type: 3}
    - time: 0.6
      value: {fileID: -2025257852810059168, guid: 881a74174ecda7142844fcea06e0cdb4,
        type: 3}
    - time: 0.8
      value: {fileID: -9059182934966639889, guid: 881a74174ecda7142844fcea06e0cdb4,
        type: 3}
    - time: 1
      value: {fileID: 231968053973558867, guid: 881a74174ecda7142844fcea06e0cdb4,
        type: 3}
    attribute: m_Sprite
    path: Dust
    classID: 212
    script: {fileID: 0}
  m_SampleRate: 60
  m_WrapMode: 0
  m_Bounds:
    m_Center: {x: 0, y: 0, z: 0}
    m_Extent: {x: 0, y: 0, z: 0}
  m_ClipBindingConstant:
    genericBindings:
    - serializedVersion: 2
      path: 299595545
      attribute: 0
      script: {fileID: 0}
      typeID: 212
      customType: 23
      isPPtrCurve: 1
    - serializedVersion: 2
      path: 879896029
      attribute: 0
      script: {fileID: 0}
      typeID: 212
      customType: 23
      isPPtrCurve: 1
    pptrCurveMapping:
    - {fileID: 595661573533270607, guid: 47531b189749d5d45a50abbcf908f6d0, type: 3}
    - {fileID: 3380867843975962835, guid: 47531b189749d5d45a50abbcf908f6d0, type: 3}
    - {fileID: 8767817562348655431, guid: 47531b189749d5d45a50abbcf908f6d0, type: 3}
    - {fileID: -7016653239807626574, guid: 47531b189749d5d45a50abbcf908f6d0, type: 3}
    - {fileID: -2836629171940628902, guid: 47531b189749d5d45a50abbcf908f6d0, type: 3}
    - {fileID: 1645720435441620283, guid: 47531b189749d5d45a50abbcf908f6d0, type: 3}
    - {fileID: 763835390307107805, guid: 881a74174ecda7142844fcea06e0cdb4, type: 3}
    - {fileID: -2034057449013672910, guid: 881a74174ecda7142844fcea06e0cdb4, type: 3}
    - {fileID: -9068918288630276153, guid: 881a74174ecda7142844fcea06e0cdb4, type: 3}
    - {fileID: -2025257852810059168, guid: 881a74174ecda7142844fcea06e0cdb4, type: 3}
    - {fileID: -9059182934966639889, guid: 881a74174ecda7142844fcea06e0cdb4, type: 3}
    - {fileID: 231968053973558867, guid: 881a74174ecda7142844fcea06e0cdb4, type: 3}
  m_AnimationClipSettings:
    serializedVersion: 2
    m_AdditiveReferencePoseClip: {fileID: 0}
    m_AdditiveReferencePoseTime: 0
    m_StartTime: 0
    m_StopTime: 1.0166667
    m_OrientationOffsetY: 0
    m_Level: 0
    m_CycleOffset: 0
    m_HasAdditiveReferencePose: 0
    m_LoopTime: 1
    m_LoopBlend: 0
    m_LoopBlendOrientation: 0
    m_LoopBlendPositionY: 0
    m_LoopBlendPositionXZ: 0
    m_KeepOriginalOrientation: 0
    m_KeepOriginalPositionY: 1
    m_KeepOriginalPositionXZ: 0
    m_HeightFromFeet: 0
    m_Mirror: 0
  m_EditorCurves: []
  m_EulerEditorCurves: []
  m_HasGenericRootTransform: 0
  m_HasMotionFloatCurves: 0
  m_Events: []
