%YAML 1.1
%TAG !u! tag:unity3d.com,2011:
--- !u!114 &11400000
MonoBehaviour:
  m_ObjectHideFlags: 0
  m_CorrespondingSourceObject: {fileID: 0}
  m_PrefabInstance: {fileID: 0}
  m_PrefabAsset: {fileID: 0}
  m_GameObject: {fileID: 0}
  m_Enabled: 1
  m_EditorHideFlags: 0
  m_Script: {fileID: 11500000, guid: 736dee34dc7a419a9e65e0977238d43c, type: 3}
  m_Name: Level 5
  m_EditorClassIdentifier: 
  maxReboot: 5
  threeStarReboot: 3
  twoStarReboot: 1
  oneStarReboot: 0
