%YAML 1.1
%TAG !u! tag:unity3d.com,2011:
--- !u!1045 &1
EditorBuildSettings:
  m_ObjectHideFlags: 0
  serializedVersion: 2
  m_Scenes:
  - enabled: 1
    path: Assets/Scenes/Menus/MainMenu.unity
    guid: e89ef9d7e730028429709c7465ee4d48
  - enabled: 1
    path: Assets/Scenes/Levels/Level1.unity
    guid: 5246bd7a606066a488eea99de5f28d14
  - enabled: 1
    path: Assets/Scenes/Levels/Level2.unity
    guid: aa5dd2059596c0c43a326b296f54f2bd
  - enabled: 1
    path: Assets/Scenes/Levels/Level3.unity
    guid: 19a363b13362c964fb3e9be2de4ed552
  - enabled: 1
    path: Assets/Scenes/Levels/Level4.unity
    guid: 9e9ac412518d6a944b03f5709cddeafb
  - enabled: 1
    path: Assets/Scenes/Levels/Level5.unity
    guid: e394d9733ec1ba449a3c19f28f46edef
  - enabled: 1
    path: Assets/Scenes/Levels/Level6.unity
    guid: 63b9183c11ba4b94d88647026e9ac03d
  - enabled: 1
    path: Assets/Scenes/Levels/Level7.unity
    guid: e49d948c33624d34cb33445a37d08573
  - enabled: 1
    path: Assets/Scenes/Levels/Level8.unity
    guid: e86800f99d2fdf6409638a22d7230ecf
  - enabled: 1
    path: Assets/Scenes/Levels/Level9.unity
    guid: d848d13b44f3173438e46bc5841adeb6
  - enabled: 1
    path: Assets/Scenes/Levels/Level10.unity
    guid: a15df4e618b438041949b9b42cc869d4
  m_configObjects:
    com.unity.input.settings: {fileID: 11400000, guid: 45a93f04e2675c14f826a7e003bf6225,
      type: 2}
