%YAML 1.1
%TAG !u! tag:unity3d.com,2011:
--- !u!1 &8811748516642660507
GameObject:
  m_ObjectHideFlags: 0
  m_CorrespondingSourceObject: {fileID: 0}
  m_PrefabInstance: {fileID: 0}
  m_PrefabAsset: {fileID: 0}
  serializedVersion: 6
  m_Component:
  - component: {fileID: 8811748516642660501}
  - component: {fileID: 8811748516642660506}
  m_Layer: 0
  m_Name: AudioManager
  m_TagString: Untagged
  m_Icon: {fileID: 0}
  m_NavMeshLayer: 0
  m_StaticEditorFlags: 0
  m_IsActive: 1
--- !u!4 &8811748516642660501
Transform:
  m_ObjectHideFlags: 0
  m_CorrespondingSourceObject: {fileID: 0}
  m_PrefabInstance: {fileID: 0}
  m_PrefabAsset: {fileID: 0}
  m_GameObject: {fileID: 8811748516642660507}
  m_LocalRotation: {x: 0, y: 0, z: 0, w: 1}
  m_LocalPosition: {x: 73.438484, y: 40.676395, z: -7.828125}
  m_LocalScale: {x: 1, y: 1, z: 1}
  m_Children: []
  m_Father: {fileID: 0}
  m_RootOrder: 0
  m_LocalEulerAnglesHint: {x: 0, y: 0, z: 0}
--- !u!114 &8811748516642660506
MonoBehaviour:
  m_ObjectHideFlags: 0
  m_CorrespondingSourceObject: {fileID: 0}
  m_PrefabInstance: {fileID: 0}
  m_PrefabAsset: {fileID: 0}
  m_GameObject: {fileID: 8811748516642660507}
  m_Enabled: 1
  m_EditorHideFlags: 0
  m_Script: {fileID: 11500000, guid: 09d014102d764520b08b7101d639cced, type: 3}
  m_Name: 
  m_EditorClassIdentifier: 
  dontDestroyOnLoad: 1
  ambientClip: {fileID: 8300000, guid: 0935e8cca4806a146864b9d2468e972c, type: 3}
  musicClip: {fileID: 8300000, guid: 0935e8cca4806a146864b9d2468e972c, type: 3}
  levelStingClip: {fileID: 8300000, guid: ac2fcc2c7f2b5624d94ccc1900db53ad, type: 3}
  walkStepClips:
  - {fileID: 8300000, guid: 5ea876375b51e5149be9d6b25e650518, type: 3}
  deathClip: {fileID: 8300000, guid: 2d996f6c3c56b0949b3264f756a586d9, type: 3}
  jumpClip: {fileID: 8300000, guid: cf63f0335a5093b4ca3830b1b57b3781, type: 3}
  spawnClip: {fileID: 8300000, guid: 90d85ab85bf110f4cab0893929b6e4e1, type: 3}
  ambientGroup: {fileID: 24300002, guid: 9edd98266513b224a9f119dade51dd86, type: 2}
  musicGroup: {fileID: 24300002, guid: 99dac521b83dec2489ef2a4c92b5eeda, type: 2}
  stingGroup: {fileID: 24300002, guid: 0cb6a91cdfcdc784b8ce148df226b5ef, type: 2}
  playerGroup: {fileID: 24300002, guid: e946e68b45d7bb341a199af705e4f6ce, type: 2}
